{
  "posts": [
    {
      "title": "asdf",
      "author": "asdf",
      "content": "asdf",
      "id": 1
    },
    {
      "title": "fgh",
      "author": "d",
      "content": "ddfgh",
      "id": 2
    },
    {
      "title": "hlk",
      "author": "bx",
      "content": "\\zs",
      "id": 3
    },
    {
      "title": "hdfg",
      "author": "asd",
      "content": "ha",
      "id": 4
    },
    {
      "title": "asd",
      "author": "bvcr",
      "content": "gt",
      "id": 5
    },
    {
      "title": "asd",
      "author": "bvcr",
      "content": "gt",
      "id": 6
    },
    {
      "title": "asd",
      "author": "bvcr",
      "content": "gt",
      "id": 7
    }
  ]
}